intermediate_R_part_2.Rmd
…
mms %>% summarize(total_mms=sum(count))

## # A tibble: 1 x 1
##   total_mms
##       <int>
## 1      1713

The group_by function allows us to assign groups, which will then be unwound by summarize statements. Easiest to see by example:

mms %>%
  group_by(BagID) %>%
  summarize(mms_per_bag=sum(count)) %>% print %>% summarize(total_mms=sum(mms_per_bag))

## # A tibble: 30 x 2
##    BagID mms_per_bag
##    <int>       <int>
##  1     1          58
##  2     2          59
##  3     3          59
##  4     4          57
##  5     5          55
##  6     6          58
##  7     7          58
##  8     8          61
##  9     9          58
## 10    10          53
## #  with 20 more rows
…
Note that summarize outputs a new tibble. You can continue to do calculations on this tibble (for example, if you data has many layers), but you cannot call your original tibble again within the same set of pipes.

We can do some tricky stuff with summarize, group_by, and mutate. For example, lets get the fraction of each color in each bag:

mms %>%
  group_by(BagID) %>%
  mutate(percent = 100*(count/sum(count))) %>%
  select(-count) %>%
  spread(color, percent)

## # A tibble: 30 x 8
## # Groups:   BagID [30]
##    Weight BagID  Blue Brown Green Orange   Red Yellow
##     <dbl> <int> <dbl> <dbl> <dbl>  <dbl> <dbl>  <dbl>
##  1   46.2    10  5.66 28.3  17.0   17.0  17.0    15.1
##  2   46.7    26 12.5  33.9  10.7   10.7   7.14   25  
##  3   46.9    13 23.6  23.6  16.4    3.64 21.8    10.9
##  4   47.6     5 12.7   7.27  5.45  16.4  18.2    40  
##  5   47.7    27 19.3  12.3  21.1   10.5  17.5    19.3
##  6   47.7    28  3.70 29.6   7.41  16.7   9.26   33.3
##  7   48.0    14 14.   14.   14.     4    18      36  
##  8   48.3    24  1.79 33.9  10.7   21.4  21.4    10.7
##  9   48.3    16 16.4  36.4  10.9    7.27  7.27   21.8
## 10   48.4     9 17.2  31.0   3.45  10.3   6.90   31.0
## #  with 20 more rows
…
gg_to_hs_trans <- read_csv("data/gg_to_hs_trans.csv")

## Parsed with column specification:
## cols(
##   entrezgene = col_double(),
##   entrezgene_hs = col_double(),
##   hsapiens_homolog_orthology_confidence = col_double()
## )

bird_genes_pvals

## # A tibble: 11,247 x 12
##    entrezgene FDRPval_m1m2 FDRPval_m2m2a FDRPval_m7m8 FDRPval_m8m8a
##         <dbl>        <dbl>         <dbl>        <dbl>         <dbl>
##  1         NA        1            1      0.0000000299     0.407    
##  2         NA        1            1      0.00000227       0.0553   
##  3     422616        1            1      0.0000343        0.236    
##  4     422026        1            1      0                0        
##  5  100857939        0.154        0.0415 0.0000000427     0.000318 
##  6     426168        0            0      0                0        
##  7         NA        1            1      0.00201          0.284    
##  8     374177        1            1      1                0.796    
##  9     427538        0            0      0                0        
## 10  100858288        1            1      0.0000103        0.0000422
## #  with 11,237 more rows, and 7 more variables: FDRPval_busted <dbl>,
## #   Prop_m2 <dbl>, Omega_m2 <dbl>, Omega_m0 <dbl>,
## #   prop_sel_branches <dbl>, length <dbl>, nseq <dbl>

gg_geneid_names

## # A tibble: 15,280 x 3
##    entrezgene ensembl_gene_id    external_gene_name
##         <dbl> <chr>              <chr>             
##  1     807636 ENSGALG00000042750 ND1               
##  2     807645 ENSGALG00000043768 ND2               
##  3     807639 ENSGALG00000032142 COX1              
##  4     807635 ENSGALG00000032456 COII              
##  5     807647 ENSGALG00000032465 <NA>              
##  6     807646 ENSGALG00000041091 ATP6              
##  7     807637 ENSGALG00000035334 COX3              
##  8     807638 ENSGALG00000030436 ND3               
##  9     807644 ENSGALG00000042478 ND4L              
## 10     807643 ENSGALG00000036229 ND4               
## #  with 15,270 more rows

gg_to_hs_trans

## # A tibble: 17,474 x 3
##    entrezgene entrezgene_hs hsapiens_homolog_orthology_confidence
##         <dbl>         <dbl>                                 <dbl>
##  1     807636          4535                                     1
##  2     807645          4536                                     1
##  3     807639          4512                                     1
##  4     807635          4513                                     1
##  5     807647            NA                                    NA
##  6     807646          4508                                     1
##  7     807637          4514                                     1
##  8     807638          4537                                     1
##  9     807644          4539                                     1
## 10     807643          4538                                     1
## #  with 17,464 more rows

bird_genes_pvals_trans <- left_join(bird_genes_pvals,gg_geneid_names,by=c("entrezgene"="entrezgene"))

Doing a left join means well keep all the rows of data in bird_genes_pvals, even if they dont have a match in gg_geneid_names, but in theory everything should have a match.

If we wanted to keep everything in gg_geneid_names, even if they were not included in the comparative genomics dataset, we could use a full join, like so:

bird_genes_pvals_trans2 <- bird_genes_pvals %>%
  full_join(.,gg_geneid_names,by="entrezgene") %>%
  select(entrezgene,external_gene_name, FDRPval_busted) %>%
  print

## # A tibble: 16,637 x 3
##    entrezgene external_gene_name FDRPval_busted
##         <dbl> <chr>                       <dbl>
##  1         NA <NA>                      0.953  
##  2         NA <NA>                      0.839  
##  3     422616 ADGRL3                    1      
##  4     422026 <NA>                      0      
##  5  100857939 <NA>                      0.0405 
##  6     426168 <NA>                      0      
##  7         NA <NA>                      0.00703
##  8     374177 HIF1A                     0.0639 
##  9     427538 HYDIN                     0      
## 10  100858288 <NA>                      1      
## #  with 16,627 more rows

Because we did a full join, well get NAs for type for rows where the NCBI gene ID (entrezgene) was not in our comparative genomics table, and NAs for NCBI gene IDs that were not in our gene name translation table.

Inner join just keeps things in both tables. We can use this, for example, to just get the genes that have a gene name, if we first create a filtered tibble.

gg_geneid_names %>%
  filter(!is.na(external_gene_name)) %>%
  inner_join(.,bird_genes_pvals,by="entrezgene") %>% print

## # A tibble: 8,824 x 14
##    entrezgene ensembl_gene_id external_gene_n FDRPval_m1m2 FDRPval_m2m2a
##         <dbl> <chr>           <chr>                   <dbl>         <dbl>
##  1     769879 ENSGALG0000004 BAAT                        1             1
##  2     426663 ENSGALG0000003 SPATS2                      1             1
##  3     419140 ENSGALG0000003 EIF6                        1             1
##  4     419907 ENSGALG0000000 LEMD2                       1             1
##  5  100857976 ENSGALG0000004 S1PR2                       1             1
##  6     395937 ENSGALG0000000 TSHB                        1             1
##  7     419909 ENSGALG0000000 C26H6ORF125                 1             1
##  8     404777 ENSGALG0000003 RAD9A                       1             1
##  9     396023 ENSGALG0000000 DKK3                        1             1
## 10     419927 ENSGALG0000000 BYSL                        1             1
## #  with 8,814 more rows, and 9 more variables: FDRPval_m7m8 <dbl>,
## #   FDRPval_m8m8a <dbl>, FDRPval_busted <dbl>, Prop_m2 <dbl>,
## #   Omega_m2 <dbl>, Omega_m0 <dbl>, prop_sel_branches <dbl>, length <dbl>,
## #   nseq <dbl>
…
